\relax 
\@writefile{toc}{\contentsline {section}{\numberline {1}Quick definition of the iBeacon}{1}}
\@writefile{toc}{\contentsline {section}{\numberline {2}Possible (mis)uses of iBeacons}{1}}
\@writefile{toc}{\contentsline {subsection}{\numberline {2.1}The "legit" Apple way}{1}}
\@writefile{toc}{\contentsline {subsection}{\numberline {2.2}The spoofing way}{2}}
\@writefile{toc}{\contentsline {subsection}{\numberline {2.3}The spamming way}{2}}
\@writefile{toc}{\contentsline {subsection}{\numberline {2.4}The app hijacking way}{2}}
